x, y
801, 1226
774, 1222
776, 1225
783, 1219
792, 1220
803, 1236
803, 1240
789, 1231
781, 1218
783, 1224
782, 1215
798, 1214
806, 1213
804, 1223
800, 1221
808, 1211
828, 1209
846, 1211
839, 1200
833, 1200
830, 1210
827, 1221
825, 1229
821, 1231
807, 1223
793, 1210
784, 1199
793, 1196
824, 1187
828, 1180
822, 1194
821, 1219
850, 1244
866, 1253
836, 1247
814, 1242
790, 1222
784, 1228
803, 1240
803, 1237
808, 1241
812, 1245
791, 1242
778, 1235
778, 1229
794, 1235
820, 1254
831, 1271
830, 1280
827, 1278
826, 1269
830, 1264
816, 1262
765, 1246
716, 1227
738, 1214
768, 1201
762, 1198
754, 1190
781, 1199
845, 1217
904, 1230
903, 1236
883, 1235
887, 1244
900, 1255
896, 1266
862, 1280
855, 1281
859, 1272
829, 1265
802, 1261
795, 1256
799, 1232
802, 1220
814, 1226
811, 1220
795, 1207
791, 1206
803, 1209
815, 1202
810, 1213
802, 1226
793, 1230
782, 1229
793, 1247
804, 1278
818, 1296
824, 1297
818, 1279
812, 1267
810, 1265
830, 1263
839, 1243
839, 1227
847, 1225
856, 1232
851, 1231
835, 1228
827, 1238
826, 1246
822, 1243
820, 1245
821, 1261
822, 1279
810, 1282
804, 1282
809, 1285
818, 1289
824, 1286
825, 1275
827, 1263
827, 1251
829, 1241
828, 1232
833, 1223
838, 1212
835, 1205
843, 1199
849, 1200
852, 1191
854, 1161
846, 1138
833, 1143
840, 1159
867, 1187
839, 1215
814, 1224
824, 1218
826, 1218
829, 1224
831, 1235
830, 1240
831, 1243
810, 1248
783, 1238
770, 1238
766, 1249
761, 1259
758, 1273
761, 1288
772, 1296
788, 1285
790, 1266
778, 1270
788, 1263
793, 1242
810, 1220
810, 1216
795, 1218
798, 1215
776, 1220
755, 1234
752, 1237
753, 1236
757, 1240
758, 1248
771, 1258
785, 1261
782, 1261
779, 1265
775, 1272
763, 1281
768, 1293
770, 1299
762, 1296
760, 1271
771, 1238
795, 1210
818, 1197
834, 1193
834, 1181
832, 1173
821, 1182
809, 1182
803, 1178
802, 1181
801, 1176
803, 1173
809, 1184
814, 1192
827, 1213
862, 1238
881, 1253
892, 1252
893, 1240
861, 1222
819, 1201
765, 1166
763, 1151
769, 1163
771, 1166
787, 1154
797, 1163
800, 1167
813, 1165
797, 1167
785, 1168
797, 1176
802, 1179
805, 1177
811, 1179
820, 1177
820, 1155
826, 1137
824, 1127
818, 1129
818, 1136
827, 1156
846, 1177
832, 1204
807, 1230
808, 1235
828, 1250
846, 1270
808, 1270
802, 1263
830, 1243
849, 1214
825, 1195
808, 1204
834, 1236
825, 1239
802, 1235
833, 1253
846, 1243
821, 1214
823, 1200
827, 1190
824, 1198
854, 1226
859, 1230
818, 1190
778, 1156
756, 1158
755, 1158
749, 1159
794, 1186
793, 1189
796, 1179
793, 1181
799, 1183
801, 1188
808, 1171
810, 1172
831, 1180
857, 1194
872, 1215
865, 1230
876, 1244
889, 1269
887, 1279
877, 1271
869, 1260
857, 1246
846, 1233
854, 1231
858, 1232
839, 1247
812, 1262
797, 1269
795, 1270
797, 1275
817, 1283
808, 1272
797, 1262
793, 1258
793, 1247
795, 1235
792, 1229
787, 1223
789, 1219
797, 1221
808, 1223
810, 1210
811, 1201
811, 1201
808, 1198
804, 1191
802, 1191
811, 1203
812, 1202
819, 1199
833, 1200
828, 1203
800, 1202
801, 1204
802, 1212
810, 1220
807, 1211
811, 1224
810, 1230
793, 1225
800, 1212
808, 1218
792, 1219
784, 1222
803, 1219
840, 1219
827, 1228
810, 1224
791, 1221
787, 1221
786, 1228
769, 1230
779, 1229
783, 1238
766, 1243
747, 1243
749, 1250
751, 1260
735, 1270
736, 1279
753, 1280
759, 1272
754, 1261
736, 1239
725, 1210
731, 1184
766, 1164
778, 1145
771, 1127
771, 1121
787, 1132
819, 1132
826, 1157
802, 1200
799, 1198
774, 1188
782, 1195
789, 1206
794, 1215
799, 1223
791, 1226
803, 1214
828, 1184
841, 1170
866, 1171
888, 1184
901, 1206
876, 1213
835, 1203
840, 1192
853, 1198
848, 1219
822, 1228
808, 1223
842, 1228
857, 1220
880, 1230
896, 1243
853, 1232
833, 1223
825, 1222
823, 1217
828, 1214
840, 1198
837, 1185
775, 1180
751, 1157
781, 1167
801, 1193
830, 1209
871, 1203
879, 1206
871, 1213
855, 1214
826, 1213
805, 1217
821, 1219
855, 1219
847, 1223
812, 1232
823, 1239
844, 1254
848, 1268
836, 1270
827, 1258
829, 1241
827, 1237
825, 1249
828, 1264
820, 1275
802, 1280
794, 1285
798, 1285
797, 1272
796, 1254
806, 1247
820, 1254
837, 1255
831, 1236
815, 1213
804, 1207
817, 1200
823, 1193
794, 1185
802, 1157
819, 1158
821, 1171
815, 1180
808, 1185
827, 1194
810, 1195
834, 1212
837, 1217
829, 1210
851, 1206
872, 1195
844, 1179
809, 1179
824, 1198
857, 1209
869, 1216
856, 1238
853, 1238
857, 1232
853, 1228
824, 1224
803, 1213
793, 1203
795, 1213
813, 1243
814, 1266
799, 1266
779, 1269
765, 1264
766, 1256
783, 1259
800, 1265
811, 1274
815, 1286
816, 1298
810, 1306
799, 1305
794, 1299
798, 1286
806, 1271
819, 1259
839, 1251
860, 1245
873, 1245
874, 1251
861, 1253
843, 1250
830, 1246
831, 1241
841, 1236
849, 1219
833, 1211
820, 1217
832, 1221
847, 1222
855, 1227
861, 1233
873, 1241
880, 1244
877, 1235
857, 1222
833, 1216
821, 1219
802, 1219
776, 1211
758, 1192
765, 1175
780, 1175
790, 1182
803, 1192
819, 1204
841, 1215
858, 1211
859, 1206
860, 1212
884, 1219
897, 1220
870, 1211
835, 1190
797, 1178
772, 1179
752, 1173
773, 1156
793, 1142
801, 1135
809, 1142
828, 1155
829, 1169
812, 1181
800, 1188
797, 1191
793, 1190
791, 1188
798, 1185
808, 1183
815, 1183
808, 1187
793, 1191
776, 1189
759, 1187
755, 1189
772, 1188
786, 1193
799, 1200
817, 1209
827, 1224
821, 1243
813, 1254
810, 1256
814, 1243
822, 1218
827, 1201
824, 1199
826, 1211
863, 1218
872, 1219
877, 1227
874, 1249
879, 1262
890, 1262
895, 1254
890, 1250
883, 1256
877, 1265
871, 1262
869, 1255
877, 1251
887, 1242
895, 1224
897, 1204
888, 1188
872, 1179
850, 1174
822, 1173
804, 1175
791, 1178
787, 1190
794, 1205
822, 1212
854, 1212
869, 1208
864, 1199
849, 1193
831, 1194
811, 1202
792, 1211
779, 1220
764, 1227
750, 1232
748, 1229
759, 1216
772, 1206
784, 1220
786, 1231
794, 1226
814, 1204
823, 1174
824, 1163
839, 1176
864, 1200
867, 1222
850, 1256
840, 1268
852, 1254
837, 1258
813, 1256
809, 1258
797, 1269
784, 1272
791, 1262
795, 1250
798, 1230
804, 1219
810, 1221
821, 1225
831, 1227
830, 1230
822, 1239
821, 1247
813, 1247
807, 1242
805, 1235
815, 1230
831, 1225
822, 1216
807, 1206
810, 1201
817, 1195
816, 1194
815, 1191
816, 1185
817, 1184
814, 1192
813, 1204
809, 1216
805, 1228
805, 1234
815, 1240
833, 1260
815, 1276
788, 1277
791, 1262
797, 1254
810, 1252
817, 1249
805, 1233
814, 1214
829, 1200
837, 1196
838, 1199
835, 1220
837, 1245
839, 1257
840, 1264
834, 1268
825, 1264
820, 1248
816, 1237
811, 1229
807, 1220
807, 1213
811, 1212
813, 1216
810, 1221
807, 1228
821, 1227
813, 1208
831, 1193
854, 1185
845, 1188
824, 1200
816, 1210
833, 1215
847, 1221
862, 1219
876, 1199
868, 1191
852, 1193
854, 1201
865, 1200
857, 1199
860, 1201
887, 1211
872, 1232
814, 1233
821, 1222
847, 1224
840, 1207
819, 1215
822, 1237
834, 1238
834, 1228
829, 1217
821, 1211
816, 1210
796, 1212
777, 1211
765, 1203
740, 1198
731, 1192
771, 1191
798, 1193
796, 1187
823, 1189
852, 1181
862, 1152
857, 1140
848, 1149
841, 1153
816, 1171
814, 1178
838, 1183
821, 1193
834, 1200
842, 1194
849, 1184
870, 1185
869, 1205
846, 1218
833, 1223
853, 1221
879, 1218
892, 1224
874, 1234
858, 1247
851, 1258
848, 1264
840, 1267
828, 1269
816, 1271
807, 1274
803, 1277
799, 1281
794, 1285
785, 1283
773, 1268
767, 1248
776, 1236
800, 1226
830, 1226
853, 1233
869, 1240
882, 1245
891, 1255
884, 1268
866, 1279
866, 1280
863, 1277
845, 1272
831, 1263
823, 1259
823, 1261
827, 1271
834, 1284
841, 1288
841, 1290
837, 1291
835, 1288
832, 1281
825, 1276
816, 1271
809, 1269
812, 1270
822, 1277
827, 1283
824, 1283
819, 1279
818, 1272
817, 1261
812, 1249
805, 1234
796, 1226
779, 1216
758, 1205
740, 1205
734, 1214
757, 1232
797, 1241
806, 1235
811, 1234
814, 1233
810, 1226
806, 1211
815, 1196
831, 1192
846, 1207
851, 1228
854, 1238
849, 1244
829, 1253
815, 1260
802, 1253
797, 1253
793, 1255
816, 1251
832, 1253
842, 1257
841, 1259
833, 1256
825, 1246
816, 1240
800, 1238
781, 1238
779, 1238
788, 1235
785, 1228
772, 1227
761, 1235
764, 1243
788, 1246
797, 1248
785, 1249
766, 1252
739, 1257
728, 1258
746, 1257
757, 1258
761, 1258
769, 1249
784, 1233
796, 1214
801, 1198
808, 1191
818, 1186
828, 1180
837, 1176
850, 1181
866, 1195
878, 1208
886, 1225
884, 1244
878, 1255
878, 1256
878, 1252
873, 1252
864, 1264
858, 1279
858, 1268
858, 1244
866, 1231
883, 1220
874, 1214
838, 1215
806, 1225
798, 1228
805, 1218
818, 1208
835, 1208
855, 1203
847, 1197
831, 1198
801, 1204
795, 1209
799, 1215
794, 1223
782, 1232
767, 1236
758, 1224
766, 1208
783, 1211
792, 1217
797, 1224
800, 1226
806, 1224
809, 1219
803, 1223
800, 1238
804, 1253
810, 1267
814, 1275
816, 1279
819, 1287
824, 1293
834, 1296
816, 1291
764, 1283
722, 1273
693, 1261
669, 1246
668, 1225
701, 1200
742, 1182
740, 1169
749, 1159
766, 1158
783, 1162
791, 1173
787, 1192
790, 1211
783, 1224
774, 1235
772, 1247
771, 1258
771, 1263
774, 1264
772, 1258
772, 1244
789, 1228
812, 1217
831, 1210
839, 1206
835, 1211
826, 1220
813, 1235
826, 1253
842, 1257
839, 1255
838, 1256
834, 1254
826, 1242
830, 1232
839, 1236
845, 1233
841, 1216
833, 1199
835, 1188
841, 1173
826, 1166
844, 1178
863, 1186
890, 1197
890, 1205
846, 1217
822, 1208
779, 1204
762, 1206
754, 1215
742, 1215
740, 1222
753, 1225
756, 1236
754, 1247
765, 1254
781, 1252
789, 1247
800, 1242
812, 1237
826, 1231
834, 1230
831, 1230
821, 1233
815, 1232
814, 1230
805, 1226
790, 1222
787, 1228
790, 1238
795, 1241
802, 1238
807, 1239
812, 1245
815, 1252
818, 1266
835, 1273
853, 1263
834, 1238
822, 1213
828, 1203
852, 1206
864, 1217
874, 1248
856, 1271
838, 1265
836, 1252
836, 1258
853, 1267
862, 1266
834, 1265
811, 1263
831, 1260
854, 1261
860, 1263
860, 1265
856, 1262
851, 1255
849, 1252
852, 1255
852, 1257
846, 1258
842, 1262
836, 1272
841, 1280
851, 1279
849, 1279
841, 1280
832, 1280
831, 1274
838, 1262
851, 1247
867, 1229
879, 1212
881, 1199
888, 1185
886, 1172
870, 1169
859, 1172
854, 1187
847, 1216
840, 1248
840, 1262
850, 1267
858, 1267
859, 1266
850, 1270
827, 1262
808, 1250
800, 1241
796, 1233
792, 1229
786, 1231
776, 1237
768, 1235
766, 1228
770, 1229
778, 1230
776, 1234
753, 1243
738, 1255
746, 1257
763, 1243
773, 1229
775, 1225
765, 1234
762, 1246
762, 1260
766, 1270
775, 1274
791, 1270
812, 1262
831, 1261
847, 1260
855, 1258
846, 1261
830, 1261
821, 1267
819, 1270
817, 1272
810, 1268
801, 1258
802, 1251
807, 1261
807, 1281
803, 1283
806, 1280
814, 1272
816, 1256
795, 1241
781, 1236
780, 1233
779, 1232
782, 1234
787, 1239
791, 1247
792, 1259
791, 1269
787, 1274
783, 1278
777, 1282
773, 1284
771, 1283
772, 1280
782, 1274
798, 1267
811, 1265
821, 1269
824, 1277
827, 1288
830, 1293
831, 1282
831, 1268
829, 1258
819, 1258
809, 1262
799, 1265
786, 1257
780, 1249
796, 1250
811, 1239
822, 1229
826, 1229
820, 1235
808, 1249
801, 1269
802, 1280
807, 1279
813, 1265
817, 1245
820, 1227
824, 1213
826, 1213
826, 1215
831, 1214
837, 1210
842, 1198
846, 1178
848, 1147
832, 1128
813, 1133
792, 1157
776, 1194
744, 1219
783, 1239
801, 1237
801, 1215
804, 1202
805, 1196
798, 1204
783, 1220
793, 1221
794, 1222
797, 1238
790, 1251
786, 1264
796, 1275
819, 1285
822, 1296
822, 1306
823, 1313
822, 1311
813, 1304
801, 1297
789, 1289
781, 1281
775, 1272
772, 1264
770, 1256
765, 1242
759, 1228
759, 1221
770, 1217
786, 1215
792, 1221
795, 1228
795, 1234
792, 1240
790, 1247
797, 1259
817, 1262
854, 1248
876, 1221
851, 1199
797, 1197
747, 1218
726, 1245
741, 1254
759, 1255
768, 1251
769, 1248
768, 1246
763, 1246
753, 1247
747, 1248
782, 1251
795, 1229
759, 1210
750, 1212
770, 1222
795, 1243
803, 1257
806, 1265
819, 1261
822, 1245
811, 1235
792, 1237
772, 1243
774, 1242
777, 1233
789, 1217
797, 1208
798, 1208
805, 1214
824, 1227
812, 1234
809, 1239
830, 1243
844, 1252
857, 1262
877, 1267
871, 1266
830, 1266
819, 1249
829, 1230
849, 1224
865, 1219
851, 1209
817, 1208
784, 1213
731, 1206
711, 1189
752, 1185
766, 1181
771, 1185
784, 1194
785, 1218
783, 1246
827, 1246
863, 1223
856, 1216
854, 1216
857, 1208
856, 1205
850, 1202
839, 1199
824, 1198
821, 1207
824, 1215
826, 1217
818, 1216
810, 1213
808, 1211
802, 1210
793, 1217
796, 1235
799, 1248
787, 1252
785, 1258
787, 1263
782, 1252
775, 1233
805, 1213
814, 1197
816, 1189
814, 1186
811, 1198
808, 1228
799, 1246
784, 1258
763, 1264
749, 1271
752, 1273
769, 1274
783, 1278
792, 1278
801, 1270
810, 1254
815, 1238
815, 1229
813, 1222
811, 1221
840, 1235
864, 1252
875, 1249
874, 1248
877, 1256
886, 1264
893, 1270
891, 1268
882, 1257
866, 1245
848, 1241
830, 1241
815, 1238
791, 1231
792, 1241
803, 1249
806, 1265
785, 1275
764, 1257
767, 1226
772, 1213
793, 1211
813, 1210
837, 1222
863, 1237
874, 1239
869, 1231
834, 1231
807, 1230
806, 1219
824, 1197
846, 1176
862, 1160
845, 1147
838, 1144
866, 1158
879, 1184
862, 1204
828, 1228
829, 1243
833, 1251
836, 1256
869, 1240
883, 1220
866, 1207
841, 1197
843, 1189
843, 1185
837, 1185
844, 1207
857, 1241
856, 1269
845, 1277
820, 1267
787, 1255
795, 1256
810, 1250
786, 1233
769, 1225
772, 1227
781, 1227
790, 1222
797, 1217
801, 1220
801, 1236
797, 1247
795, 1244
797, 1224
803, 1190
816, 1160
815, 1150
811, 1157
825, 1159
820, 1161
831, 1175
839, 1190
823, 1194
822, 1191
828, 1195
827, 1214
840, 1203
851, 1187
847, 1188
846, 1197
858, 1204
867, 1199
860, 1190
883, 1205
829, 1219
797, 1227
803, 1229
806, 1229
811, 1220
812, 1202
808, 1193
805, 1194
807, 1186
808, 1182
809, 1188
818, 1197
818, 1200
808, 1206
789, 1209
766, 1208
758, 1208
776, 1214
824, 1216
857, 1215
834, 1202
819, 1185
818, 1164
822, 1151
819, 1150
826, 1159
828, 1153
819, 1145
820, 1153
827, 1173
834, 1193
905, 1188
927, 1166
896, 1156
879, 1154
860, 1149
825, 1147
802, 1155
813, 1167
832, 1190
838, 1187
837, 1171
846, 1157
844, 1161
824, 1163
803, 1154
788, 1148
787, 1156
790, 1171
786, 1192
783, 1200
776, 1201
762, 1207
759, 1215
777, 1217
804, 1218
826, 1223
827, 1237
818, 1240
802, 1231
791, 1222
795, 1220
807, 1225
821, 1231
831, 1229
832, 1216
825, 1211
816, 1212
803, 1199
794, 1176
782, 1155
789, 1126
805, 1120
826, 1160
841, 1203
810, 1197
783, 1172
788, 1153
794, 1139
825, 1131
852, 1130
855, 1148
828, 1166
800, 1173
798, 1181
814, 1200
821, 1210
826, 1224
837, 1216
823, 1212
814, 1219
834, 1219
849, 1220
845, 1230
822, 1236
807, 1228
815, 1204
813, 1206
818, 1228
825, 1245
797, 1262
800, 1255
788, 1252
784, 1234
766, 1221
752, 1210
758, 1193
770, 1182
776, 1178
789, 1197
808, 1221
827, 1214
847, 1194
861, 1186
862, 1191
859, 1202
857, 1209
856, 1202
864, 1198
869, 1198
861, 1195
851, 1187
832, 1177
824, 1173
825, 1180
830, 1187
827, 1194
826, 1203
827, 1212
825, 1214
820, 1214
812, 1214
806, 1217
803, 1223
801, 1229
803, 1239
807, 1253
803, 1251
800, 1246
801, 1242
807, 1239
822, 1233
843, 1222
846, 1203
832, 1188
822, 1186
816, 1191
815, 1187
827, 1173
848, 1159
858, 1154
868, 1157
868, 1163
857, 1168
837, 1178
810, 1198
799, 1210
802, 1207
810, 1202
818, 1206
824, 1220
826, 1226
815, 1213
813, 1206
816, 1215
812, 1225
814, 1232
806, 1258
773, 1290
751, 1301
755, 1301
777, 1300
803, 1295
826, 1289
839, 1287
832, 1290
819, 1294
805, 1284
806, 1265
826, 1250
827, 1254
840, 1270
833, 1278
829, 1280
823, 1292
820, 1298
814, 1298
822, 1279
827, 1259
830, 1247
826, 1248
811, 1240
800, 1229
796, 1226
803, 1221
818, 1225
833, 1235
842, 1233
845, 1227
842, 1222
840, 1210
847, 1194
854, 1188
857, 1185
848, 1182
835, 1173
839, 1170
847, 1181
847, 1206
850, 1230
863, 1231
873, 1210
882, 1192
889, 1186
893, 1178
883, 1176
861, 1192
861, 1207
862, 1216
855, 1217
830, 1204
813, 1193
836, 1205
836, 1213
822, 1217
818, 1228
817, 1243
801, 1245
796, 1248
800, 1261
804, 1269
811, 1266
825, 1271
817, 1270
814, 1271
817, 1274
817, 1276
810, 1276
810, 1275
812, 1278
811, 1280
809, 1266
811, 1242
818, 1224
823, 1219
831, 1221
839, 1227
837, 1231
825, 1233
824, 1234
823, 1233
790, 1242
790, 1246
800, 1257
801, 1261
808, 1262
836, 1266
834, 1281
811, 1275
809, 1272
815, 1281
832, 1305
826, 1304
823, 1293
819, 1278
821, 1263
811, 1258
806, 1263
810, 1271
808, 1289
804, 1310
803, 1321
804, 1321
800, 1310
790, 1289
797, 1268
825, 1238
838, 1211
833, 1205
815, 1198
796, 1189
793, 1186
804, 1196
820, 1217
816, 1222
807, 1234
813, 1255
811, 1272
799, 1277
790, 1269
795, 1258
799, 1256
802, 1257
803, 1256
805, 1255
806, 1250
796, 1234
788, 1230
785, 1238
781, 1251
774, 1261
766, 1266
761, 1260
767, 1253
769, 1241
778, 1248
790, 1254
795, 1261
788, 1275
773, 1272
750, 1256
727, 1251
723, 1233
741, 1199
760, 1181
772, 1162
787, 1146
799, 1131
800, 1130
795, 1142
793, 1158
795, 1166
801, 1173
804, 1182
803, 1187
806, 1197
817, 1208
825, 1211
811, 1219
787, 1231
776, 1238
790, 1239
802, 1234
799, 1225
806, 1221
823, 1228
837, 1246
829, 1258
820, 1256
828, 1251
849, 1255
846, 1279
843, 1297
863, 1283
862, 1278
840, 1266
825, 1272
828, 1274
819, 1265
819, 1264
827, 1265
829, 1256
820, 1241
811, 1224
802, 1208
786, 1205
772, 1219
767, 1231
773, 1238
783, 1248
793, 1252
798, 1255
791, 1257
791, 1255
820, 1242
837, 1216
841, 1192
841, 1181
844, 1189
836, 1195
817, 1199
792, 1216
765, 1232
747, 1255
743, 1273
754, 1266
771, 1246
781, 1219
775, 1199
757, 1203
745, 1216
754, 1221
791, 1218
827, 1208
831, 1211
835, 1233
839, 1244
845, 1244
843, 1258
836, 1257
821, 1254
807, 1256
773, 1265
741, 1270
777, 1248
792, 1233
800, 1242
802, 1236
814, 1204
801, 1212
791, 1232
811, 1236
807, 1213
822, 1203
823, 1214
788, 1205
795, 1198
802, 1213
789, 1237
774, 1238
778, 1217
794, 1204
816, 1201
826, 1194
832, 1182
835, 1180
830, 1192
809, 1205
796, 1213
812, 1216
809, 1220
795, 1227
783, 1228
774, 1228
794, 1233
813, 1223
831, 1205
843, 1190
834, 1186
814, 1191
813, 1199
826, 1213
823, 1214
809, 1212
791, 1215
780, 1216
778, 1218
771, 1223
775, 1222
788, 1214
778, 1206
774, 1210
789, 1211
802, 1204
803, 1202
802, 1200
808, 1195
816, 1185
819, 1183
817, 1192
810, 1206
805, 1215
806, 1212
812, 1192
824, 1172
814, 1180
819, 1188
811, 1207
811, 1217
827, 1211
826, 1209
807, 1213
795, 1228
804, 1241
810, 1247
808, 1247
803, 1247
792, 1244
772, 1232
753, 1227
750, 1240
765, 1258
774, 1255
795, 1247
816, 1240
812, 1254
